v 20130925 2
C 59700 39600 1 90 1 capacitor-1.sym
{
T 59000 39400 5 10 0 0 270 2 1
device=CAPACITOR
T 58800 39400 5 10 0 0 270 2 1
symversion=0.1
T 59700 39600 5 10 0 0 270 2 1
footprint=smd0805
T 59000 39400 5 10 1 1 0 2 1
refdes=C9
T 59000 38900 5 10 1 1 0 2 1
value=100n
}
C 59400 38100 1 0 0 gnd-1.sym
N 59500 38400 59500 38700 4
N 59000 39900 62200 39900 4
{
T 61200 39950 5 10 1 1 0 0 1
netname=INT/\_EXT
}
N 59500 39600 59500 39900 4
C 59800 38500 1 0 0 osc-5.sym
{
T 59800 37600 5 10 0 0 0 0 1
footprint=ecstxo2520
T 60500 39500 5 10 1 1 0 0 1
refdes=U3
T 62100 38500 5 10 1 1 180 0 1
value=ECS_TXO_10MHz
T 59800 37800 5 10 1 0 0 0 1
mouser=520-T2520-33-100-ANT
}
C 59800 38000 1 0 0 nc-bottom-1.sym
{
T 59800 38600 5 10 0 0 0 0 1
value=NoConnection
T 59800 39000 5 10 0 0 0 0 1
device=DRC_Directive
}
C 60300 38100 1 0 0 gnd-1.sym
N 60400 38400 60400 38500 4
N 60000 39900 60000 39700 4
N 60400 39700 60400 41400 4
N 60000 38400 60000 38500 4
C 49800 42300 1 0 0 BNC-1.sym
{
T 50150 42950 5 10 0 0 0 0 1
device=BNC
T 49400 43300 5 10 0 0 0 0 1
footprint=mcx919_382
T 49600 43100 5 10 1 1 0 0 1
refdes=CONN1
T 49400 41900 5 10 1 1 90 0 1
value=EXT_REF_IN
}
C 49800 41200 1 0 0 gnd-1.sym
N 49900 41500 49900 42300 4
N 50300 42800 51100 42800 4
C 52500 42300 1 0 0 npn-4.sym
{
T 52500 42300 5 10 0 0 0 0 1
footprint=sot23
T 53100 43000 5 10 1 1 0 0 1
refdes=Q1
T 53000 42700 5 10 1 1 0 0 1
value=BC848
}
C 50800 42500 1 270 0 resistor-1.sym
{
T 50800 42500 5 10 0 1 0 0 1
footprint=smd0805
T 50800 42400 5 10 1 1 180 0 1
refdes=R3
T 50800 41700 5 10 1 1 180 0 1
value=56/NM
}
C 50800 41200 1 0 0 gnd-1.sym
N 50900 41500 50900 41600 4
N 50900 42500 50900 42800 4
C 51100 43000 1 180 1 capacitor-1.sym
{
T 51300 42300 5 10 0 0 0 2 1
device=CAPACITOR
T 51300 42100 5 10 0 0 0 2 1
symversion=0.1
T 51100 43000 5 10 0 0 0 2 1
footprint=smd0805
T 51400 42900 5 10 1 1 180 2 1
refdes=C2
T 52000 42600 5 10 1 1 180 2 1
value=10n
}
N 52500 42800 52000 42800 4
C 52100 41200 1 0 0 gnd-1.sym
N 52200 41500 52200 41600 4
N 52200 42500 52200 42800 4
C 52100 42500 1 270 0 resistor-1.sym
{
T 52100 42500 5 10 0 1 0 0 1
footprint=smd0805
T 52100 42400 5 10 1 1 180 0 1
refdes=R4
T 52600 41700 5 10 1 1 180 0 1
value=27k
}
C 52900 41800 1 0 0 gnd-1.sym
N 53000 42100 53000 42300 4
C 52100 44000 1 270 0 resistor-1.sym
{
T 52100 44000 5 10 0 1 0 0 1
footprint=smd0805
T 52100 43900 5 10 1 1 180 0 1
refdes=R2
T 52600 43200 5 10 1 1 180 0 1
value=27k
}
N 52200 42800 52200 43100 4
N 52200 44000 52200 44200 4
N 52000 44200 53800 44200 4
N 53000 44200 53000 43300 4
C 50700 44000 1 0 1 capacitor-1.sym
{
T 50500 44700 5 10 0 0 180 2 1
device=CAPACITOR
T 50500 44900 5 10 0 0 180 2 1
symversion=0.1
T 50700 44000 5 10 0 0 180 2 1
footprint=smd0805
T 49700 44400 5 10 1 1 0 2 1
refdes=C1
T 50400 44100 5 10 1 1 0 2 1
value=100n
}
C 49300 44300 1 270 0 gnd-1.sym
N 49600 44200 49800 44200 4
C 51100 44300 1 180 1 resistor-1.sym
{
T 51100 44300 5 10 0 1 270 2 1
footprint=smd0805
T 51300 44300 5 10 1 1 180 2 1
refdes=R1
T 52100 44000 5 10 1 1 180 2 1
value=1k
}
N 51100 44200 50700 44200 4
C 50700 44400 1 0 0 3.3V-plus-1.sym
N 50900 44400 50900 44200 4
C 54000 44000 1 90 1 capacitor-1.sym
{
T 53300 43800 5 10 0 0 270 2 1
device=CAPACITOR
T 53100 43800 5 10 0 0 270 2 1
symversion=0.1
T 54000 44000 5 10 0 0 270 2 1
footprint=smd0805
T 53300 43800 5 10 1 1 0 2 1
refdes=C3
T 53900 43300 5 10 1 1 0 2 1
value=10n
}
N 53800 44000 53800 44200 4
C 55400 41500 1 0 0 74HC2G14-1.sym
{
T 55400 41500 5 10 0 0 0 0 1
footprint=sot23-6
T 55800 43000 5 10 1 1 0 0 1
refdes=U1
T 56700 41500 5 10 1 1 0 0 1
value=74HC2G14
}
N 55800 40800 55800 42400 4
N 53800 42800 56000 42800 4
N 53800 42500 53800 43100 4
C 53700 41200 1 0 0 gnd-1.sym
N 53800 41500 53800 41600 4
C 53700 42500 1 270 0 resistor-1.sym
{
T 53700 42500 5 10 0 1 0 0 1
footprint=smd0805
T 53700 42400 5 10 1 1 180 0 1
refdes=R5
T 54200 41700 5 10 1 1 180 0 1
value=12k
}
C 56400 41200 1 0 0 gnd-1.sym
C 56600 44700 1 180 0 gnd-1.sym
C 55100 43200 1 90 0 3.3V-plus-1.sym
C 54300 42500 1 270 0 resistor-1.sym
{
T 54300 42500 5 10 0 1 0 0 1
footprint=smd0805
T 54300 42400 5 10 1 1 180 0 1
refdes=R6
T 55900 41700 5 10 1 1 180 0 1
value=15k
}
C 54600 41500 1 180 0 3.3V-plus-1.sym
N 54400 41500 54400 41600 4
N 54400 42500 54400 42800 4
N 57100 42000 58100 42000 4
N 57300 42000 57300 40800 4
C 56700 44400 1 90 1 capacitor-1.sym
{
T 56000 44200 5 10 0 0 270 2 1
device=CAPACITOR
T 55800 44200 5 10 0 0 270 2 1
symversion=0.1
T 56700 44400 5 10 0 0 270 2 1
footprint=smd0805
T 56000 44200 5 10 1 1 0 2 1
refdes=C4
T 56600 43700 5 10 1 1 0 2 1
value=100n
}
N 56500 43500 56500 43300 4
N 56200 43400 56500 43400 4
C 56000 40800 1 90 1 capacitor-1.sym
{
T 55300 40600 5 10 0 0 270 2 1
device=CAPACITOR
T 55100 40600 5 10 0 0 270 2 1
symversion=0.1
T 56000 40800 5 10 0 0 270 2 1
footprint=smd0805
T 55400 40700 5 10 1 1 0 2 1
refdes=C6
T 55900 40100 5 10 1 1 0 2 1
value=10n
}
C 57500 40800 1 90 1 capacitor-1.sym
{
T 56800 40600 5 10 0 0 270 2 1
device=CAPACITOR
T 56600 40600 5 10 0 0 270 2 1
symversion=0.1
T 57500 40800 5 10 0 0 270 2 1
footprint=smd0805
T 56900 40700 5 10 1 1 0 2 1
refdes=C8
T 57400 40100 5 10 1 1 0 2 1
value=10n
}
C 56600 40800 1 270 0 resistor-1.sym
{
T 56600 40800 5 10 0 1 0 0 1
footprint=smd0805
T 56600 40700 5 10 1 1 180 0 1
refdes=R10
T 57100 40000 5 10 1 1 180 0 1
value=15k
}
C 56500 40800 1 0 0 3.3V-plus-1.sym
C 54900 40800 1 270 0 resistor-1.sym
{
T 54900 40800 5 10 0 1 0 0 1
footprint=smd0805
T 54900 40700 5 10 1 1 180 0 1
refdes=R7
T 55400 40000 5 10 1 1 180 0 1
value=15k
}
C 54800 40900 1 0 0 3.3V-plus-1.sym
N 55000 39200 55000 39900 4
N 55000 39600 55800 39600 4
N 55800 39600 55800 39900 4
N 56700 39900 56700 39600 4
N 56700 39600 57300 39600 4
N 57300 39200 57300 39900 4
C 55400 39400 1 180 1 diode-commcathode-1.sym
{
T 55400 39400 5 10 0 0 0 6 1
footprint=sot23
T 55350 38850 5 10 1 1 180 6 1
refdes=D1
T 57300 38700 5 10 1 1 0 6 1
value=BAV70
}
N 55400 39200 55000 39200 4
N 57000 39200 57300 39200 4
N 56200 38700 56200 38600 4
N 54300 38600 58500 38600 4
C 53400 38700 1 180 1 resistor-1.sym
{
T 53400 38700 5 10 0 1 270 2 1
footprint=smd0805
T 53600 38700 5 10 1 1 180 2 1
refdes=R8
T 54400 38400 5 10 1 1 180 2 1
value=18k
}
C 53400 39300 1 180 1 capacitor-1.sym
{
T 53600 38600 5 10 0 0 0 2 1
device=CAPACITOR
T 53600 38400 5 10 0 0 0 2 1
symversion=0.1
T 53400 39300 5 10 0 0 0 2 1
footprint=smd0805
T 53700 39200 5 10 1 1 180 2 1
refdes=C5
T 54400 38900 5 10 1 1 180 2 1
value=100n
}
N 54300 39100 54600 39100 4
N 54600 39100 54600 38600 4
C 53000 39200 1 270 0 gnd-1.sym
N 53300 39100 53400 39100 4
C 53000 38700 1 270 0 gnd-1.sym
N 53300 38600 53400 38600 4
C 61200 41400 1 90 0 74lvc1g3157-1.sym
{
T 61200 41400 5 10 0 0 90 0 1
footprint=sot23-6
T 60100 43200 5 10 1 1 90 6 1
refdes=U2
T 60100 41500 5 10 1 1 90 0 1
value=74LVC1G3157
T 61400 41600 5 10 1 0 90 0 1
digikey=296-14908-1-ND
}
C 58000 39400 1 270 1 pnp-4.sym
{
T 58000 39400 5 10 0 0 0 0 1
footprint=sot23
T 58000 39400 5 10 1 1 180 2 1
refdes=Q2
T 58300 40200 5 10 1 1 0 0 1
value=BC858
}
N 58500 38600 58500 39400 4
N 58000 39900 57800 39900 4
N 57800 39900 57800 40100 4
C 57600 40100 1 0 0 3.3V-plus-1.sym
N 59200 39900 59200 43700 4
N 60400 43400 60400 43700 4
N 58600 43700 60400 43700 4
N 60700 43400 60700 44300 4
N 60700 44200 60200 44200 4
C 59300 44400 1 180 1 capacitor-1.sym
{
T 59300 44400 5 10 0 1 90 8 1
footprint=smd0805
T 58600 44600 5 10 0 0 90 0 1
device=CAPACITOR
T 58400 44600 5 10 0 0 90 0 1
symversion=0.1
T 59200 44400 5 10 1 1 0 2 1
refdes=C7
T 60300 44000 5 10 1 1 0 6 1
value=100n
}
C 58900 44100 1 270 1 gnd-1.sym
N 59200 44200 59300 44200 4
C 60600 41000 1 0 0 gnd-1.sym
N 60700 41300 60700 41400 4
C 48800 34600 0 0 0 title-A3.sym
G 63900 35258 1300 695 0 0 0
/home/lapo/work/radioteknos/logo/logoRTK.png
T 58300 35300 9 10 1 0 0 0 1
Frequenzimetro da laboratorio (freqm) - riferimento
T 57800 35800 9 10 1 0 0 0 1
Radioteknos di Lapo Pieri (lapo@radioteknos.it)
T 58300 35000 9 10 1 0 0 0 1
freqm_ref-1.0.sch
T 58300 34700 9 10 1 0 0 0 1
1
T 59800 34700 9 10 1 0 0 0 1
1
T 62100 35000 9 10 1 0 0 0 1
1.0 - 01/12/2020
T 62200 34700 9 10 1 0 0 0 1
NAX
N 58100 42000 58100 40800 4
N 58100 40800 61000 40800 4
N 61000 40800 61000 41400 4
C 60500 44300 1 0 0 3.3V-plus-1.sym
C 64100 39400 1 90 0 gnd-1.sym
N 63800 39500 63600 39500 4
C 61700 40200 1 270 1 gnd-1.sym
N 62000 40300 62200 40300 4
N 63800 40300 63800 40600 4
N 63800 40300 63600 40300 4
N 63600 39900 64700 39900 4
{
T 64000 39950 5 10 1 1 0 0 1
netname=OUT
}
N 62200 39500 62000 39500 4
N 62000 39500 62000 39300 4
C 61800 39300 1 180 1 3.3V-plus-1.sym
C 64000 40600 1 0 1 3.3V-plus-1.sym
C 62200 39300 1 0 0 header6-1.sym
{
T 63400 40500 5 10 0 1 0 0 1
device=HEADER6
T 62200 39300 5 10 0 0 0 0 1
footprint=boxheader3x2smd
T 62500 40600 5 10 1 1 0 0 1
refdes=CONN2
T 62500 39100 5 10 1 1 0 0 1
value=OUT_PWR
T 61500 38700 5 10 1 0 0 0 1
digikey_boxheader=609-5122-ND
}
C 62300 43800 1 180 1 resistor-1.sym
{
T 62300 43800 5 10 0 1 270 2 1
footprint=smd1206
T 62500 43800 5 10 1 1 180 2 1
refdes=R11
T 63300 43500 5 10 1 1 180 2 1
value=100
}
N 62300 43700 61000 43700 4
N 61000 43700 61000 43400 4
N 63200 43700 64700 43700 4
N 64700 43700 64700 39900 4
C 58500 43400 1 270 0 resistor-1.sym
{
T 58500 43400 5 10 0 1 0 0 1
footprint=smd0805
T 58500 43300 5 10 1 1 180 0 1
refdes=R9
T 59000 42600 5 10 1 1 180 0 1
value=10k
}
C 58500 42000 1 0 0 gnd-1.sym
N 58600 42300 58600 42500 4
N 58600 43400 58600 43700 4
N 55000 40900 55000 40800 4
N 55800 42000 56000 42000 4
N 57100 42800 57300 42800 4
N 57300 42800 57300 42400 4
N 57300 42400 55800 42400 4
C 55300 43500 1 180 1 resistor-1.sym
{
T 55300 43500 5 10 0 1 270 2 1
footprint=smd1206
T 55500 43500 5 10 1 1 180 2 1
refdes=RR1
T 56300 43200 5 10 1 1 180 2 1
value=0
}
N 55100 43400 55300 43400 4
